<svg width="40" height="40" viewBox="0 0 40 40" fill="none" xmlns="http://www.w3.org/2000/svg">
<path d="M27.74 17.4134C27.0392 17.4134 26.3542 17.6496 25.803 18.0748C25.2676 17.6654 24.5983 17.4134 23.8739 17.4134C22.0943 17.4134 20.6455 18.8622 20.6455 20.6417C20.6455 22.4213 22.0943 23.8701 23.8739 23.8701C24.6061 23.8701 25.2676 23.6181 25.8109 23.2087C26.3699 23.6339 27.0471 23.8701 27.7479 23.8701C29.5274 23.8701 30.9762 22.4213 30.9762 20.6417C30.9683 18.8622 29.5195 17.4134 27.74 17.4134ZM23.8739 22.5787C22.803 22.5787 21.9368 21.7126 21.9368 20.6417C21.9368 19.5709 22.803 18.7047 23.8739 18.7047C24.9447 18.7047 25.8109 19.5709 25.8109 20.6417C25.803 21.7047 24.9368 22.5787 23.8739 22.5787ZM27.74 22.5787C27.3463 22.5787 26.9762 22.4606 26.6613 22.2402C26.9447 21.752 27.0943 21.2008 27.0943 20.6417C27.0943 20.0827 26.9447 19.5315 26.6613 19.0433C26.9762 18.8228 27.3463 18.7047 27.74 18.7047C28.8109 18.7047 29.677 19.5709 29.677 20.6417C29.677 21.7047 28.8109 22.5787 27.74 22.5787Z" fill="url(#paint0_linear)"/>
<path d="M7.74755 30.3189H3.87354V31.6102H7.74755V30.3189Z" fill="url(#paint1_linear)"/>
<path d="M14.8428 30.3189H10.9688V31.6102H14.8428V30.3189Z" fill="url(#paint2_linear)"/>
<path d="M21.937 30.3189H18.063V31.6102H21.937V30.3189Z" fill="url(#paint3_linear)"/>
<path d="M29.0317 30.3189H25.1577V31.6102H29.0317V30.3189Z" fill="url(#paint4_linear)"/>
<path d="M11.6137 19.996H3.87354V21.2874H11.6137V19.996Z" fill="url(#paint5_linear)"/>
<path d="M20.6452 25.1535H3.87354V26.4449H20.6452V25.1535Z" fill="url(#paint6_linear)"/>
<path d="M36.7717 3.87007H8.38583C6.6063 3.87007 5.15748 5.31889 5.15748 7.09842V14.1929H3.22835C1.44882 14.1929 0 15.6417 0 17.4213V32.9016C0 34.6811 1.44882 36.1299 3.22835 36.1299H31.6142C33.3937 36.1299 34.8425 34.6811 34.8425 32.9016V25.8071H36.7717C38.5512 25.8071 40 24.3583 40 22.5787V7.09054C40 5.31102 38.5512 3.87007 36.7717 3.87007ZM33.5512 32.9016C33.5512 33.9724 32.685 34.8386 31.6142 34.8386H3.22835C2.15748 34.8386 1.29134 33.9724 1.29134 32.9016V17.4134C1.29134 16.3425 2.15748 15.4764 3.22835 15.4764H31.6142C32.685 15.4764 33.5512 16.3425 33.5512 17.4134V32.9016ZM38.7087 22.5787C38.7087 23.6496 37.8425 24.5157 36.7717 24.5157H34.8346V17.4213C34.8346 15.6417 33.3858 14.1929 31.6063 14.1929H6.44882V11.6102H38.7087V22.5787ZM38.7087 10.3189H6.44882V9.02755H38.7087V10.3189ZM38.7087 7.73621H6.44882V7.09054C6.44882 6.01968 7.31496 5.15354 8.38583 5.15354H36.7717C37.8425 5.15354 38.7087 6.01968 38.7087 7.09054V7.73621Z" fill="url(#paint7_linear)"/>
<defs>
<linearGradient id="paint0_linear" x1="21.281" y1="23.1322" x2="29.5146" y2="22.5298" gradientUnits="userSpaceOnUse">
<stop stop-color="#219653"/>
<stop offset="1" stop-color="#8BC751"/>
</linearGradient>
<linearGradient id="paint1_linear" x1="4.11185" y1="31.4627" x2="7.15861" y2="31.0447" gradientUnits="userSpaceOnUse">
<stop stop-color="#219653"/>
<stop offset="1" stop-color="#8BC751"/>
</linearGradient>
<linearGradient id="paint2_linear" x1="11.2071" y1="31.4627" x2="14.2538" y2="31.0447" gradientUnits="userSpaceOnUse">
<stop stop-color="#219653"/>
<stop offset="1" stop-color="#8BC751"/>
</linearGradient>
<linearGradient id="paint3_linear" x1="18.3013" y1="31.4627" x2="21.3481" y2="31.0447" gradientUnits="userSpaceOnUse">
<stop stop-color="#219653"/>
<stop offset="1" stop-color="#8BC751"/>
</linearGradient>
<linearGradient id="paint4_linear" x1="25.396" y1="31.4627" x2="28.4428" y2="31.0447" gradientUnits="userSpaceOnUse">
<stop stop-color="#219653"/>
<stop offset="1" stop-color="#8BC751"/>
</linearGradient>
<linearGradient id="paint5_linear" x1="4.34968" y1="21.1398" x2="10.1182" y2="19.5587" gradientUnits="userSpaceOnUse">
<stop stop-color="#219653"/>
<stop offset="1" stop-color="#8BC751"/>
</linearGradient>
<linearGradient id="paint6_linear" x1="4.90527" y1="26.2973" x2="14.8395" y2="20.3971" gradientUnits="userSpaceOnUse">
<stop stop-color="#219653"/>
<stop offset="1" stop-color="#8BC751"/>
</linearGradient>
<linearGradient id="paint7_linear" x1="2.46066" y1="32.4431" x2="34.4085" y2="30.6316" gradientUnits="userSpaceOnUse">
<stop stop-color="#219653"/>
<stop offset="1" stop-color="#8BC751"/>
</linearGradient>
</defs>
</svg>
