<svg width="34" height="34" viewBox="0 0 34 34" fill="none" xmlns="http://www.w3.org/2000/svg">
    <path d="M19.6679 18.7778H16.3472C16.1944 18.7778 16.0151 18.6014 16.0151 18.4457C16.0151 18.2899 16.1944 18.1136 16.3472 18.1136L17.7754 17.875V11.1816C17.7754 9.68055 16.5801 8.46355 15.1052 8.46355C13.6308 8.46355 12.4352 9.68055 12.4352 11.1816V13.0292H12V11.0002C12 9.24629 13.3824 7.81934 15.1052 7.81934C16.8284 7.81934 18.2106 9.24629 18.2106 11.0002V17.875L19.6679 18.1136C19.821 18.1136 20 18.2899 20 18.4457C20 18.6014 19.821 18.7778 19.6679 18.7778Z" fill="url(#paint0_linear)" stroke="url(#paint1_linear)" stroke-width="0.99824" stroke-linejoin="round" />
    <path d="M24 19H9C9 21 10.5 25 16.5 25C22.5 25 24 21 24 19Z" fill="url(#paint2_linear)" stroke="url(#paint3_linear)" stroke-linejoin="round" />
    <path d="M11.0827 15.5C11.2662 15.02 11.7707 14.3 12 14C12.2293 14.3 12.7338 15.02 12.9173 15.5C13.1466 16.1 12.9173 17 12 17C11.0827 17 10.8534 16.1 11.0827 15.5Z" fill="url(#paint4_linear)" />
    <circle cx="17" cy="17" r="16.5" stroke="url(#paint5_linear)" />
    <defs>
        <linearGradient id="paint0_linear" x1="19.5079" y1="17.5254" x2="13.1049" y2="17.3116" gradientUnits="userSpaceOnUse">
            <stop stop-color="#219653" />
            <stop offset="1" stop-color="#8BC751" />
        </linearGradient>
        <linearGradient id="paint1_linear" x1="19.5079" y1="17.5254" x2="13.1049" y2="17.3116" gradientUnits="userSpaceOnUse">
            <stop stop-color="#219653" />
            <stop offset="1" stop-color="#8BC751" />
        </linearGradient>
        <linearGradient id="paint2_linear" x1="9.92275" y1="24.3143" x2="21.7866" y2="22.958" gradientUnits="userSpaceOnUse">
            <stop stop-color="#219653" />
            <stop offset="1" stop-color="#8BC751" />
        </linearGradient>
        <linearGradient id="paint3_linear" x1="9.92275" y1="24.3143" x2="21.7866" y2="22.958" gradientUnits="userSpaceOnUse">
            <stop stop-color="#219653" />
            <stop offset="1" stop-color="#8BC751" />
        </linearGradient>
        <linearGradient id="paint4_linear" x1="11.123" y1="16.6571" x2="12.7241" y2="16.6083" gradientUnits="userSpaceOnUse">
            <stop stop-color="#219653" />
            <stop offset="1" stop-color="#8BC751" />
        </linearGradient>
        <linearGradient id="paint5_linear" x1="2.09156" y1="30.1143" x2="29.2777" y2="28.8711" gradientUnits="userSpaceOnUse">
            <stop stop-color="#219653" />
            <stop offset="1" stop-color="#8BC751" />
        </linearGradient>
    </defs>
</svg>