<svg width="16" height="18" viewBox="0 0 16 18" fill="none" xmlns="http://www.w3.org/2000/svg">
    <path d="M3.67389 12.362C3.67389 12.2144 3.79351 12.0948 3.94106 12.0948C4.08861 12.0948 4.20823 12.2144 4.20823 12.362V15.0988C4.20823 15.2463 4.08861 15.366 3.94106 15.366C3.79351 15.366 3.67389 15.2463 3.67389 15.0988V12.362Z" fill="#828282" stroke="#0B7640" stroke-width="0.99824" />
    <path d="M6.75838 14.1024L6.75841 14.1025C6.8132 14.2395 6.9685 14.3062 7.1057 14.2513C7.24272 14.1965 7.30936 14.0413 7.25454 13.9041L6.75838 14.1024ZM6.75838 14.1024L5.66376 11.366C5.66375 11.366 5.66374 11.366 5.66373 11.366M6.75838 14.1024L5.66373 11.366M5.66373 11.366C5.60885 11.2286 5.67577 11.0731 5.81224 11.0184L5.66373 11.366ZM5.81238 11.0184C5.94941 10.9637 6.10509 11.0305 6.15989 11.1673C6.15991 11.1673 6.15992 11.1673 6.15993 11.1674L7.25452 13.904L5.81238 11.0184Z" fill="#828282" stroke="#0B7640" stroke-width="0.99824" />
    <path d="M1.61328 11.1673L1.61338 11.167C1.66794 11.0304 1.82347 10.9637 1.96011 11.0184L1.96025 11.0184C2.09703 11.0731 2.16407 11.2286 2.10937 11.3661C2.10934 11.3662 2.10931 11.3663 2.10927 11.3664L1.0149 14.1022C1.0149 14.1022 1.0149 14.1022 1.01489 14.1022C0.959787 14.2397 0.804204 14.3061 0.66713 14.2513C0.530076 14.1965 0.463621 14.0414 0.518511 13.9044L0.518627 13.9041L1.61328 11.1673Z" fill="#828282" stroke="#0B7640" stroke-width="0.99824" />
    <path d="M14.9999 17.5H9.99994C9.76986 17.5 9.49994 17.2344 9.49994 17C9.49994 16.7654 9.76986 16.5 9.99994 16.5L12.1504 16.1406V6.06247C12.1504 3.80241 10.3506 1.96998 8.12995 1.96998C5.90984 1.96998 4.10965 3.80241 4.10965 6.06247V8.8444H3.45444V5.7894C3.45444 3.14855 5.53594 1 8.12995 1C10.7245 1 12.8057 3.14855 12.8057 5.7894V16.1406L14.9999 16.5C15.2304 16.5 15.4999 16.7654 15.4999 17C15.4999 17.2344 15.2304 17.5 14.9999 17.5Z" fill="#0B7640" stroke="#0B7640" stroke-width="0.99824" stroke-linejoin="round" />
</svg>