<svg width="24" height="24" viewBox="0 0 24 24" fill="none" xmlns="http://www.w3.org/2000/svg">
    <g clip-path="url(#clip0)">
        <path d="M23.8535 10.1465L18.8535 5.1465C18.7598 5.05275 18.6328 5.00002 18.5 5.00002H14V3.50002C14 3.22364 13.7764 3 13.5 3H2.00002C0.897469 3 0 3.89695 0 5.00002V17.5C0 18.3272 0.672844 19 1.5 19H2.68434C3.09844 20.1615 4.19808 21 5.49998 21C6.80194 21 7.90158 20.1615 8.31572 19H15.6843C16.0985 20.1615 17.1981 21 18.5 21C19.802 21 20.9016 20.1615 21.3158 19H22C23.1026 19 24 18.103 24 17V10.5C24 10.3672 23.9473 10.2402 23.8535 10.1465ZM5.49998 20C4.39744 20 3.49997 19.1031 3.49997 18C3.49997 16.8969 4.39744 16 5.49998 16C6.60253 16 7.5 16.897 7.5 18C7.5 19.103 6.60253 20 5.49998 20ZM18.5 20C17.3975 20 16.5 19.103 16.5 18C16.5 16.897 17.3975 16 18.5 16C19.6026 16 20.5 16.8969 20.5 18C20.5 19.1031 19.6026 20 18.5 20ZM23 17C23 17.5513 22.5518 18 22 18H21.5C21.5 16.3457 20.1543 15 18.5 15C16.8457 15 15.5 16.3457 15.5 18H8.49998C8.49998 16.3457 7.1543 15 5.49998 15C3.84567 15 2.49998 16.3457 2.49998 18H1.5C1.22461 18 0.999984 17.7759 0.999984 17.5V5.00002C0.999984 4.44877 1.44825 4.00003 1.99997 4.00003H13V5.50003C13 5.77641 13.2236 6.00005 13.5 6.00005H18.293L23 10.7071V17Z" fill="url(#paint0_linear)" />
        <path d="M5.49998 8H3.50002C3.22364 8 3 8.22364 3 8.50002V12.5C3 12.7764 3.22364 13 3.50002 13C3.77639 13 4.00003 12.7764 4.00003 12.5V11H5.00002C5.27639 11 5.50003 10.7764 5.50003 10.5C5.50003 10.2236 5.27639 9.99997 5.00002 9.99997H3.99998V8.99999H5.49998C5.77636 8.99999 6 8.77635 6 8.49997C6 8.22364 5.77636 8 5.49998 8Z" fill="url(#paint1_linear)" />
        <path d="M13.5 9.00003C13.7764 9.00003 14.0001 8.77639 14.0001 8.50002C14.0001 8.22364 13.7764 8 13.5 8H11.5C11.2236 8 11 8.22364 11 8.50002V12.5C11 12.7764 11.2236 13 11.5 13H13.5C13.7764 13 14.0001 12.7764 14.0001 12.5C14.0001 12.2236 13.7764 12 13.5 12H12V11H13C13.2764 11 13.5 10.7764 13.5 10.5C13.5 10.2236 13.2764 9.99997 13 9.99997H12V9.00003H13.5Z" fill="url(#paint2_linear)" />
        <path d="M17.5 9.00003C17.7764 9.00003 18 8.77639 18 8.50002C18 8.22364 17.7764 8 17.5 8H15.5C15.2236 8 15 8.22364 15 8.50002V12.5C15 12.7764 15.2236 13 15.5 13H17.5C17.7764 13 18 12.7764 18 12.5C18 12.2236 17.7764 12 17.5 12H16V11H17C17.2764 11 17.5 10.7764 17.5 10.5C17.5 10.2236 17.2764 9.99997 17 9.99997H16V9.00003H17.5Z" fill="url(#paint3_linear)" />
        <path d="M8.5 8H7.50002C7.22364 8 7 8.22364 7 8.50002V12.5C7 12.7764 7.22364 13 7.50002 13C7.77639 13 8.00003 12.7764 8.00003 12.5V11H8.50005C8.77544 11 9.00006 11.2241 9.00006 11.5V12.5C9.00006 12.7764 9.2237 13 9.50008 13C9.77645 13 10.0001 12.7764 10.0001 12.5V11.5C10.0001 11.1162 9.85558 10.7656 9.61727 10.5C9.85553 10.2344 10.0001 9.88382 10.0001 9.50005C10 8.67285 9.32716 8 8.5 8ZM8.5 9.99997H7.99998V8.99999H8.5C8.77539 8.99999 9.00002 9.2241 9.00002 9.5C9.00002 9.77586 8.77539 9.99997 8.5 9.99997Z" fill="url(#paint4_linear)" />
    </g>
    <defs>
        <linearGradient id="paint0_linear" x1="1.4764" y1="18.9429" x2="20.6355" y2="17.7747" gradientUnits="userSpaceOnUse">
            <stop stop-color="#219653" />
            <stop offset="1" stop-color="#8BC751" />
        </linearGradient>
        <linearGradient id="paint1_linear" x1="3.18455" y1="12.4286" x2="5.58653" y2="12.3627" gradientUnits="userSpaceOnUse">
            <stop stop-color="#219653" />
            <stop offset="1" stop-color="#8BC751" />
        </linearGradient>
        <linearGradient id="paint2_linear" x1="11.1846" y1="12.4286" x2="13.5866" y2="12.3627" gradientUnits="userSpaceOnUse">
            <stop stop-color="#219653" />
            <stop offset="1" stop-color="#8BC751" />
        </linearGradient>
        <linearGradient id="paint3_linear" x1="15.1846" y1="12.4286" x2="17.5866" y2="12.3627" gradientUnits="userSpaceOnUse">
            <stop stop-color="#219653" />
            <stop offset="1" stop-color="#8BC751" />
        </linearGradient>
        <linearGradient id="paint4_linear" x1="7.18456" y1="12.4286" x2="9.58661" y2="12.3627" gradientUnits="userSpaceOnUse">
            <stop stop-color="#219653" />
            <stop offset="1" stop-color="#8BC751" />
        </linearGradient>
        <clipPath id="clip0">
            <rect width="24" height="24" fill="white" />
        </clipPath>
    </defs>
</svg>