<svg width="34" height="34" viewBox="0 0 34 34" fill="none" xmlns="http://www.w3.org/2000/svg">
    <path d="M8.25 16.6133V24.1133C8.25 24.8033 8.81125 25.3633 9.5 25.3633H15.75V16.6133H8.25Z" fill="url(#paint0_linear)" />
    <path d="M25.75 11.6127H21.795C22.0788 11.4189 22.3225 11.2264 22.4925 11.0539C23.5012 10.0402 23.5012 8.39016 22.4925 7.37641C21.5125 6.38891 19.805 6.39141 18.8263 7.37641C18.2838 7.92016 16.8463 10.1339 17.045 11.6127H16.955C17.1525 10.1339 15.715 7.92016 15.1737 7.37641C14.1937 6.39141 12.4862 6.39141 11.5075 7.37641C10.5 8.39016 10.5 10.0402 11.5062 11.0539C11.6775 11.2264 11.9212 11.4189 12.205 11.6127H8.25C7.56125 11.6127 7 12.1739 7 12.8627V14.7377C7 15.0827 7.28 15.3627 7.625 15.3627H15.75V12.8627H18.25V15.3627H26.375C26.72 15.3627 27 15.0827 27 14.7377V12.8627C27 12.1739 26.44 11.6127 25.75 11.6127ZM15.6763 11.5714C15.6763 11.5714 15.6237 11.6127 15.445 11.6127C14.5813 11.6127 12.9325 10.7152 12.3938 10.1727C11.87 9.64516 11.87 8.78516 12.3938 8.25766C12.6475 8.00266 12.9837 7.86266 13.3412 7.86266C13.6975 7.86266 14.0338 8.00266 14.2875 8.25766C15.13 9.10516 15.9675 11.2702 15.6763 11.5714ZM18.5538 11.6127C18.3763 11.6127 18.3237 11.5727 18.3237 11.5714C18.0325 11.2702 18.87 9.10516 19.7125 8.25766C20.2163 7.74891 21.0975 7.74641 21.6063 8.25766C22.1313 8.78516 22.1313 9.64516 21.6063 10.1727C21.0675 10.7152 19.4187 11.6127 18.5538 11.6127Z" fill="url(#paint1_linear)" />
    <path d="M18.25 16.6133V25.3633H24.5C25.19 25.3633 25.75 24.8033 25.75 24.1133V16.6133H18.25Z" fill="url(#paint2_linear)" />
    <circle cx="17" cy="17" r="16.5" stroke="url(#paint3_linear)" />
    <defs>
        <linearGradient id="paint0_linear" x1="8.71137" y1="24.3633" x2="14.7116" y2="24.1281" gradientUnits="userSpaceOnUse">
            <stop stop-color="#219653" />
            <stop offset="1" stop-color="#8BC751" />
        </linearGradient>
        <linearGradient id="paint1_linear" x1="8.23033" y1="14.3654" x2="24.0815" y2="12.704" gradientUnits="userSpaceOnUse">
            <stop stop-color="#219653" />
            <stop offset="1" stop-color="#8BC751" />
        </linearGradient>
        <linearGradient id="paint2_linear" x1="18.7114" y1="24.3633" x2="24.7116" y2="24.1281" gradientUnits="userSpaceOnUse">
            <stop stop-color="#219653" />
            <stop offset="1" stop-color="#8BC751" />
        </linearGradient>
        <linearGradient id="paint3_linear" x1="2.09156" y1="30.1143" x2="29.2777" y2="28.8711" gradientUnits="userSpaceOnUse">
            <stop stop-color="#219653" />
            <stop offset="1" stop-color="#8BC751" />
        </linearGradient>
    </defs>
</svg>