<svg width="18" height="18" viewBox="0 0 18 18" fill="none" xmlns="http://www.w3.org/2000/svg">
    <path d="M15.4434 6.0679L16.3855 5.12692C17.3563 4.15661 17.1054 2.8338 16.1351 1.86482C15.1648 0.895847 13.8417 0.64387 12.8714 1.61311L11.9307 2.55516" stroke="#828282" />
    <path d="M13.9056 7.60462L15.4428 6.06743L11.93 2.55469L10.3926 4.09161" stroke="#828282" />
    <path d="M5.59478 15.916L13.906 7.60481L10.393 4.0918L2.08203 12.403M5.59478 15.916L1 16.9981L2.08203 12.403M5.59478 15.916L2.08203 12.403" stroke="#828282" />
</svg>