<svg width="17" height="19" viewBox="0 0 17 19" fill="none" xmlns="http://www.w3.org/2000/svg">
    <path d="M11.6679 11.7788H8.34718C8.19438 11.7788 8.01511 11.6024 8.01511 11.4467C8.01511 11.2909 8.19438 11.1146 8.34718 11.1146L9.77544 10.8759V4.18254C9.77544 2.68153 8.58009 1.46452 7.10524 1.46452C5.63075 1.46452 4.43516 2.68153 4.43516 4.18254V6.03016H4V4.00118C4 2.24727 5.38243 0.820312 7.10524 0.820312C8.82841 0.820312 10.2106 2.24727 10.2106 4.00118V10.8759L11.6679 11.1146C11.821 11.1146 12 11.2909 12 11.4467C12 11.6024 11.821 11.7788 11.6679 11.7788Z" fill="#0B7640" stroke="#0B7640" stroke-width="0.99824" stroke-linejoin="round" />
    <path d="M16 12H1C1 14 2.5 18 8.5 18C14.5 18 16 14 16 12Z" fill="#0B7640" stroke="#0B7640" stroke-linejoin="round" />
    <path d="M3.08271 8.5C3.26617 8.02 3.77067 7.3 3.99998 7C4.22931 7.3 4.73384 8.02 4.91729 8.5C5.14661 9.1 4.91726 10 3.99998 10C3.08271 10 2.85339 9.1 3.08271 8.5Z" fill="#0B7640" />
</svg>