<svg width="24" height="24" viewBox="0 0 24 24" fill="none" xmlns="http://www.w3.org/2000/svg">
<path d="M23.5861 19.8621H0.413812C0.185297 19.8621 0 19.6768 0 19.4483V4.55175C0 4.32324 0.185297 4.13794 0.413812 4.13794H23.5862C23.8147 4.13794 24 4.32324 24 4.55175V19.4483C24 19.6768 23.8147 19.8621 23.5861 19.8621Z" fill="#F5F5F5"/>
<path d="M24 5.34755H0V4.55175C0 4.32324 0.185297 4.13794 0.413812 4.13794H23.5862C23.8147 4.13794 24 4.32324 24 4.55175L24 5.34755Z" fill="#FF4B55"/>
<path d="M24 8.97614H0V10.1857H24V8.97614Z" fill="#FF4B55"/>
<path d="M24 6.55692H0V7.76647H24V6.55692Z" fill="#FF4B55"/>
<path d="M24 12.6048H0.413812C0.185297 12.6048 0 12.4195 0 12.191V11.3952H24V12.6048Z" fill="#FF4B55"/>
<path d="M24 16.2338H0V17.4433H24V16.2338Z" fill="#FF4B55"/>
<path d="M23.5861 19.8621H0.413812C0.185297 19.8621 0 19.6768 0 19.4483V18.6525H24V19.4483C24 19.6768 23.8147 19.8621 23.5861 19.8621Z" fill="#FF4B55"/>
<path d="M24 13.8146H0V15.0241H24V13.8146Z" fill="#FF4B55"/>
<path d="M10.7586 4.13797H0.413812C0.185297 4.13797 0 4.32322 0 4.55173V12.1909C0 12.4194 0.185297 12.6047 0.413812 12.6047H10.7586C10.9872 12.6047 11.1724 12.4194 11.1724 12.1909V4.55173C11.1724 4.32322 10.9871 4.13797 10.7586 4.13797Z" fill="#41479B"/>
<path d="M1.16198 5.08783L1.25357 5.36252L1.54312 5.36472C1.58062 5.36505 1.59614 5.41286 1.56599 5.43513L1.33307 5.60716L1.42045 5.88321C1.43179 5.91893 1.39106 5.94855 1.36054 5.92671L1.125 5.75838L0.889451 5.92675C0.858935 5.94855 0.818295 5.91897 0.829545 5.88325L0.916919 5.60721L0.683998 5.43518C0.653858 5.41286 0.669373 5.3651 0.706873 5.36477L0.996419 5.36257L1.08801 5.08788C1.09982 5.05226 1.15007 5.05226 1.16198 5.08783Z" fill="#F5F5F5"/>
<path d="M1.16198 6.52463L1.25357 6.79931L1.54312 6.80152C1.58062 6.80185 1.59614 6.84966 1.56599 6.87192L1.33307 7.04395L1.42045 7.32C1.43179 7.35572 1.39106 7.38534 1.36054 7.3635L1.125 7.19517L0.889451 7.36355C0.858935 7.38534 0.818295 7.35576 0.829545 7.32005L0.916919 7.044L0.683998 6.87197C0.653858 6.84966 0.669373 6.80189 0.706873 6.80156L0.996419 6.79936L1.08801 6.52467C1.09982 6.4891 1.15007 6.4891 1.16198 6.52463Z" fill="#F5F5F5"/>
<path d="M1.16198 7.96152L1.25357 8.23621L1.54312 8.23841C1.58062 8.23874 1.59614 8.28655 1.56599 8.30882L1.33307 8.48085L1.42045 8.7569C1.43179 8.79262 1.39106 8.82224 1.36054 8.8004L1.125 8.63207L0.889451 8.80045C0.858935 8.82224 0.818295 8.79266 0.829545 8.75695L0.916919 8.4809L0.683998 8.30886C0.653858 8.28655 0.669373 8.23879 0.706873 8.23846L0.996419 8.23625L1.08801 7.96157C1.09982 7.92599 1.15007 7.92599 1.16198 7.96152Z" fill="#F5F5F5"/>
<path d="M1.16198 9.39847L1.25357 9.67316L1.54312 9.67536C1.58062 9.67569 1.59614 9.7235 1.56599 9.74577L1.33307 9.9178L1.42045 10.1938C1.43179 10.2296 1.39106 10.2592 1.36054 10.2373L1.125 10.069L0.889451 10.2374C0.858935 10.2592 0.818295 10.2296 0.829545 10.1939L0.916919 9.91785L0.683998 9.74582C0.653858 9.7235 0.669373 9.67574 0.706873 9.67541L0.996419 9.67321L1.08801 9.39852C1.09982 9.3629 1.15007 9.3629 1.16198 9.39847Z" fill="#F5F5F5"/>
<path d="M1.16198 10.8354L1.25357 11.1101L1.54312 11.1123C1.58062 11.1126 1.59614 11.1604 1.56599 11.1827L1.33307 11.3547L1.42045 11.6307C1.43179 11.6665 1.39106 11.6961 1.36054 11.6742L1.125 11.5059L0.889451 11.6743C0.858935 11.6961 0.818295 11.6665 0.829545 11.6308L0.916919 11.3547L0.683998 11.1827C0.653858 11.1604 0.669373 11.1126 0.706873 11.1123L0.996419 11.1101L1.08801 10.8354C1.09982 10.7997 1.15007 10.7997 1.16198 10.8354Z" fill="#F5F5F5"/>
<path d="M2.27728 5.79221L2.36887 6.0669L2.65842 6.0691C2.69592 6.06943 2.71143 6.11724 2.68129 6.13951L2.44837 6.31154L2.53574 6.58759C2.54709 6.6233 2.50635 6.65293 2.47584 6.63109L2.24029 6.46271L2.00475 6.63109C1.97423 6.65288 1.93359 6.6233 1.94484 6.58759L2.03221 6.31154L1.79929 6.13951C1.76915 6.1172 1.78467 6.06943 1.82217 6.0691L2.11171 6.0669L2.20331 5.79221C2.21507 5.75668 2.26542 5.75668 2.27728 5.79221Z" fill="#F5F5F5"/>
<path d="M2.27728 7.22914L2.36887 7.50382L2.65842 7.50602C2.69592 7.50635 2.71143 7.55416 2.68129 7.57643L2.44837 7.74846L2.53574 8.0245C2.54709 8.06022 2.50635 8.08984 2.47584 8.068L2.24029 7.89963L2.00475 8.068C1.97423 8.0898 1.93359 8.06027 1.94484 8.0245L2.03221 7.74846L1.79929 7.57643C1.76915 7.55412 1.78467 7.50635 1.82217 7.50602L2.11171 7.50382L2.20331 7.22914C2.21507 7.19356 2.26542 7.19356 2.27728 7.22914Z" fill="#F5F5F5"/>
<path d="M2.27728 8.66606L2.36887 8.94074L2.65842 8.94295C2.69592 8.94328 2.71143 8.99109 2.68129 9.01335L2.44837 9.18538L2.53574 9.46143C2.54709 9.49715 2.50635 9.52677 2.47584 9.50493L2.24029 9.33656L2.00475 9.50493C1.97423 9.52673 1.93359 9.49715 1.94484 9.46143L2.03221 9.18538L1.79929 9.01335C1.76915 8.99104 1.78467 8.94328 1.82217 8.94295L2.11171 8.94074L2.20331 8.66606C2.21507 8.63048 2.26542 8.63048 2.27728 8.66606Z" fill="#F5F5F5"/>
<path d="M2.27728 10.103L2.36887 10.3777L2.65842 10.3799C2.69592 10.3802 2.71143 10.428 2.68129 10.4503L2.44837 10.6223L2.53574 10.8983C2.54709 10.9341 2.50635 10.9637 2.47584 10.9418L2.24029 10.7735L2.00475 10.9418C1.97423 10.9636 1.93359 10.9341 1.94484 10.8983L2.03221 10.6223L1.79929 10.4503C1.76915 10.428 1.78467 10.3802 1.82217 10.3799L2.11171 10.3777L2.20331 10.103C2.21507 10.0674 2.26542 10.0674 2.27728 10.103Z" fill="#F5F5F5"/>
<path d="M3.39258 5.08772L3.48417 5.3624L3.77372 5.36461C3.81122 5.36493 3.82673 5.41275 3.79659 5.43501L3.56367 5.60704L3.65105 5.88309C3.66239 5.9188 3.62165 5.94843 3.59114 5.92659L3.35559 5.75821L3.12004 5.92659C3.08953 5.94838 3.04889 5.9188 3.06014 5.88309L3.14751 5.60704L2.91459 5.43501C2.88445 5.4127 2.89996 5.36493 2.93746 5.36461L3.22701 5.3624L3.31861 5.08772C3.33042 5.05214 3.38072 5.05214 3.39258 5.08772Z" fill="#F5F5F5"/>
<path d="M3.39258 6.52463L3.48417 6.79932L3.77372 6.80152C3.81122 6.80185 3.82673 6.84966 3.79659 6.87193L3.56367 7.04396L3.65105 7.32001C3.66239 7.35573 3.62165 7.38535 3.59114 7.36351L3.35559 7.19513L3.12004 7.36351C3.08953 7.3853 3.04889 7.35573 3.06014 7.32001L3.14751 7.04396L2.91459 6.87193C2.88445 6.84962 2.89996 6.80185 2.93746 6.80152L3.22701 6.79932L3.31861 6.52463C3.33042 6.4891 3.38072 6.4891 3.39258 6.52463Z" fill="#F5F5F5"/>
<path d="M3.39258 7.96152L3.48417 8.23622L3.77372 8.23842C3.81122 8.23875 3.82673 8.28656 3.79659 8.30883L3.56367 8.48086L3.65105 8.75691C3.66239 8.79263 3.62165 8.82225 3.59114 8.80041L3.35559 8.63203L3.12004 8.80041C3.08953 8.82221 3.04889 8.79263 3.06014 8.75691L3.14751 8.48086L2.91459 8.30883C2.88445 8.28651 2.89996 8.23875 2.93746 8.23842L3.22701 8.23622L3.31861 7.96152C3.33042 7.92599 3.38072 7.92599 3.39258 7.96152Z" fill="#F5F5F5"/>
<path d="M3.39258 9.39848L3.48417 9.67317L3.77372 9.67537C3.81122 9.6757 3.82673 9.72351 3.79659 9.74578L3.56367 9.91781L3.65105 10.1939C3.66239 10.2296 3.62165 10.2592 3.59114 10.2374L3.35559 10.069L3.12004 10.2374C3.08953 10.2591 3.04889 10.2296 3.06014 10.1939L3.14751 9.91781L2.91459 9.74578C2.88445 9.72346 2.89996 9.6757 2.93746 9.67537L3.22701 9.67317L3.31861 9.39848C3.33042 9.3629 3.38072 9.3629 3.39258 9.39848Z" fill="#F5F5F5"/>
<path d="M3.39258 10.8354L3.48417 11.1101L3.77372 11.1123C3.81122 11.1126 3.82673 11.1604 3.79659 11.1827L3.56367 11.3547L3.65105 11.6308C3.66239 11.6665 3.62165 11.6961 3.59114 11.6743L3.35559 11.5059L3.12004 11.6743C3.08953 11.696 3.04889 11.6665 3.06014 11.6308L3.14751 11.3547L2.91459 11.1827C2.88445 11.1604 2.89996 11.1126 2.93746 11.1123L3.22701 11.1101L3.31861 10.8354C3.33042 10.7997 3.38072 10.7997 3.39258 10.8354Z" fill="#F5F5F5"/>
<path d="M4.50793 5.79221L4.59952 6.0669L4.88907 6.0691C4.92657 6.06943 4.94208 6.11724 4.91194 6.13951L4.67902 6.31154L4.7664 6.58759C4.77774 6.6233 4.73701 6.65293 4.70649 6.63109L4.47094 6.46271L4.2354 6.63109C4.20488 6.65288 4.16424 6.6233 4.17549 6.58759L4.26287 6.31154L4.02995 6.13951C3.9998 6.1172 4.01532 6.06943 4.05282 6.0691L4.34237 6.0669L4.43396 5.79221C4.44573 5.75668 4.49607 5.75668 4.50793 5.79221Z" fill="#F5F5F5"/>
<path d="M4.50793 7.22914L4.59952 7.50382L4.88907 7.50602C4.92657 7.50635 4.94208 7.55416 4.91194 7.57643L4.67902 7.74846L4.7664 8.0245C4.77774 8.06022 4.73701 8.08984 4.70649 8.068L4.47094 7.89963L4.2354 8.068C4.20488 8.0898 4.16424 8.06027 4.17549 8.0245L4.26287 7.74846L4.02995 7.57643C3.9998 7.55412 4.01532 7.50635 4.05282 7.50602L4.34237 7.50382L4.43396 7.22914C4.44573 7.19356 4.49607 7.19356 4.50793 7.22914Z" fill="#F5F5F5"/>
<path d="M4.50793 8.66606L4.59952 8.94074L4.88907 8.94295C4.92657 8.94328 4.94208 8.99109 4.91194 9.01335L4.67902 9.18538L4.7664 9.46143C4.77774 9.49715 4.73701 9.52677 4.70649 9.50493L4.47094 9.33656L4.2354 9.50493C4.20488 9.52673 4.16424 9.49715 4.17549 9.46143L4.26287 9.18538L4.02995 9.01335C3.9998 8.99104 4.01532 8.94328 4.05282 8.94295L4.34237 8.94074L4.43396 8.66606C4.44573 8.63048 4.49607 8.63048 4.50793 8.66606Z" fill="#F5F5F5"/>
<path d="M4.50793 10.103L4.59952 10.3777L4.88907 10.3799C4.92657 10.3802 4.94208 10.428 4.91194 10.4503L4.67902 10.6223L4.7664 10.8983C4.77774 10.9341 4.73701 10.9637 4.70649 10.9418L4.47094 10.7735L4.2354 10.9418C4.20488 10.9636 4.16424 10.9341 4.17549 10.8983L4.26287 10.6223L4.02995 10.4503C3.9998 10.428 4.01532 10.3802 4.05282 10.3799L4.34237 10.3777L4.43396 10.103C4.44573 10.0674 4.49607 10.0674 4.50793 10.103Z" fill="#F5F5F5"/>
<path d="M5.62321 5.08772L5.71481 5.3624L6.00435 5.36461C6.04185 5.36493 6.05737 5.41275 6.02723 5.43501L5.79431 5.60704L5.88168 5.88309C5.89302 5.9188 5.85229 5.94843 5.82177 5.92659L5.58618 5.75821L5.35063 5.92659C5.32012 5.94838 5.27948 5.9188 5.29073 5.88309L5.3781 5.60704L5.14518 5.43501C5.11504 5.4127 5.13055 5.36493 5.16805 5.36461L5.4576 5.3624L5.5492 5.08772C5.56106 5.05214 5.61135 5.05214 5.62321 5.08772Z" fill="#F5F5F5"/>
<path d="M5.62321 6.52463L5.71481 6.79932L6.00435 6.80152C6.04185 6.80185 6.05737 6.84966 6.02723 6.87193L5.79431 7.04396L5.88168 7.32001C5.89302 7.35573 5.85229 7.38535 5.82177 7.36351L5.58618 7.19513L5.35063 7.36351C5.32012 7.3853 5.27948 7.35573 5.29073 7.32001L5.3781 7.04396L5.14518 6.87193C5.11504 6.84962 5.13055 6.80185 5.16805 6.80152L5.4576 6.79932L5.5492 6.52463C5.56106 6.4891 5.61135 6.4891 5.62321 6.52463Z" fill="#F5F5F5"/>
<path d="M5.62321 7.96152L5.71481 8.23622L6.00435 8.23842C6.04185 8.23875 6.05737 8.28656 6.02723 8.30883L5.79431 8.48086L5.88168 8.75691C5.89302 8.79263 5.85229 8.82225 5.82177 8.80041L5.58618 8.63203L5.35063 8.80041C5.32012 8.82221 5.27948 8.79263 5.29073 8.75691L5.3781 8.48086L5.14518 8.30883C5.11504 8.28651 5.13055 8.23875 5.16805 8.23842L5.4576 8.23622L5.5492 7.96152C5.56106 7.92599 5.61135 7.92599 5.62321 7.96152Z" fill="#F5F5F5"/>
<path d="M5.62321 9.39848L5.71481 9.67317L6.00435 9.67537C6.04185 9.6757 6.05737 9.72351 6.02723 9.74578L5.79431 9.91781L5.88168 10.1939C5.89302 10.2296 5.85229 10.2592 5.82177 10.2374L5.58618 10.069L5.35063 10.2374C5.32012 10.2591 5.27948 10.2296 5.29073 10.1939L5.3781 9.91781L5.14518 9.74578C5.11504 9.72346 5.13055 9.6757 5.16805 9.67537L5.4576 9.67317L5.5492 9.39848C5.56106 9.3629 5.61135 9.3629 5.62321 9.39848Z" fill="#F5F5F5"/>
<path d="M5.62321 10.8354L5.71481 11.1101L6.00435 11.1123C6.04185 11.1126 6.05737 11.1604 6.02723 11.1827L5.79431 11.3547L5.88168 11.6308C5.89302 11.6665 5.85229 11.6961 5.82177 11.6743L5.58618 11.5059L5.35063 11.6743C5.32012 11.696 5.27948 11.6665 5.29073 11.6308L5.3781 11.3547L5.14518 11.1827C5.11504 11.1604 5.13055 11.1126 5.16805 11.1123L5.4576 11.1101L5.5492 10.8354C5.56106 10.7997 5.61135 10.7997 5.62321 10.8354Z" fill="#F5F5F5"/>
<path d="M6.73852 5.79221L6.83012 6.0669L7.11967 6.0691C7.15717 6.06943 7.17268 6.11724 7.14254 6.13951L6.90962 6.31154L6.99699 6.58759C7.00834 6.6233 6.9676 6.65293 6.93709 6.63109L6.70154 6.46271L6.46599 6.63109C6.43547 6.65288 6.39483 6.6233 6.40608 6.58759L6.49346 6.31154L6.26054 6.13951C6.2304 6.1172 6.24591 6.06943 6.28341 6.0691L6.57296 6.0669L6.66455 5.79221C6.67641 5.75668 6.72666 5.75668 6.73852 5.79221Z" fill="#F5F5F5"/>
<path d="M6.73852 7.22914L6.83012 7.50382L7.11967 7.50602C7.15717 7.50635 7.17268 7.55416 7.14254 7.57643L6.90962 7.74846L6.99699 8.0245C7.00834 8.06022 6.9676 8.08984 6.93709 8.068L6.70154 7.89963L6.46599 8.068C6.43547 8.0898 6.39483 8.06027 6.40608 8.0245L6.49346 7.74846L6.26054 7.57643C6.2304 7.55412 6.24591 7.50635 6.28341 7.50602L6.57296 7.50382L6.66455 7.22914C6.67641 7.19356 6.72666 7.19356 6.73852 7.22914Z" fill="#F5F5F5"/>
<path d="M6.73852 8.66606L6.83012 8.94074L7.11967 8.94295C7.15717 8.94328 7.17268 8.99109 7.14254 9.01335L6.90962 9.18538L6.99699 9.46143C7.00834 9.49715 6.9676 9.52677 6.93709 9.50493L6.70154 9.33656L6.46599 9.50493C6.43547 9.52673 6.39483 9.49715 6.40608 9.46143L6.49346 9.18538L6.26054 9.01335C6.2304 8.99104 6.24591 8.94328 6.28341 8.94295L6.57296 8.94074L6.66455 8.66606C6.67641 8.63048 6.72666 8.63048 6.73852 8.66606Z" fill="#F5F5F5"/>
<path d="M6.73852 10.103L6.83012 10.3777L7.11967 10.3799C7.15717 10.3802 7.17268 10.428 7.14254 10.4503L6.90962 10.6223L6.99699 10.8983C7.00834 10.9341 6.9676 10.9637 6.93709 10.9418L6.70154 10.7735L6.46599 10.9418C6.43547 10.9636 6.39483 10.9341 6.40608 10.8983L6.49346 10.6223L6.26054 10.4503C6.2304 10.428 6.24591 10.3802 6.28341 10.3799L6.57296 10.3777L6.66455 10.103C6.67641 10.0674 6.72666 10.0674 6.73852 10.103Z" fill="#F5F5F5"/>
<path d="M7.85382 5.08772L7.94541 5.3624L8.23496 5.36461C8.27246 5.36493 8.28798 5.41275 8.25784 5.43501L8.02491 5.60704L8.11229 5.88309C8.12363 5.9188 8.0829 5.94843 8.05238 5.92659L7.81683 5.75821L7.58129 5.92659C7.55077 5.94838 7.51013 5.9188 7.52138 5.88309L7.60875 5.60704L7.37583 5.43501C7.34569 5.4127 7.36121 5.36493 7.39871 5.36461L7.68826 5.3624L7.77985 5.08772C7.79162 5.05214 7.84196 5.05214 7.85382 5.08772Z" fill="#F5F5F5"/>
<path d="M7.85382 6.52463L7.94541 6.79932L8.23496 6.80152C8.27246 6.80185 8.28798 6.84966 8.25784 6.87193L8.02491 7.04396L8.11229 7.32001C8.12363 7.35573 8.0829 7.38535 8.05238 7.36351L7.81683 7.19513L7.58129 7.36351C7.55077 7.3853 7.51013 7.35573 7.52138 7.32001L7.60875 7.04396L7.37583 6.87193C7.34569 6.84962 7.36121 6.80185 7.39871 6.80152L7.68826 6.79932L7.77985 6.52463C7.79162 6.4891 7.84196 6.4891 7.85382 6.52463Z" fill="#F5F5F5"/>
<path d="M7.85382 7.96152L7.94541 8.23622L8.23496 8.23842C8.27246 8.23875 8.28798 8.28656 8.25784 8.30883L8.02491 8.48086L8.11229 8.75691C8.12363 8.79263 8.0829 8.82225 8.05238 8.80041L7.81683 8.63203L7.58129 8.80041C7.55077 8.82221 7.51013 8.79263 7.52138 8.75691L7.60875 8.48086L7.37583 8.30883C7.34569 8.28651 7.36121 8.23875 7.39871 8.23842L7.68826 8.23622L7.77985 7.96152C7.79162 7.92599 7.84196 7.92599 7.85382 7.96152Z" fill="#F5F5F5"/>
<path d="M7.85382 9.39848L7.94541 9.67317L8.23496 9.67537C8.27246 9.6757 8.28798 9.72351 8.25784 9.74578L8.02491 9.91781L8.11229 10.1939C8.12363 10.2296 8.0829 10.2592 8.05238 10.2374L7.81683 10.069L7.58129 10.2374C7.55077 10.2591 7.51013 10.2296 7.52138 10.1939L7.60875 9.91781L7.37583 9.74578C7.34569 9.72346 7.36121 9.6757 7.39871 9.67537L7.68826 9.67317L7.77985 9.39848C7.79162 9.3629 7.84196 9.3629 7.85382 9.39848Z" fill="#F5F5F5"/>
<path d="M7.85382 10.8354L7.94541 11.1101L8.23496 11.1123C8.27246 11.1126 8.28798 11.1604 8.25784 11.1827L8.02491 11.3547L8.11229 11.6308C8.12363 11.6665 8.0829 11.6961 8.05238 11.6743L7.81683 11.5059L7.58129 11.6743C7.55077 11.696 7.51013 11.6665 7.52138 11.6308L7.60875 11.3547L7.37583 11.1827C7.34569 11.1604 7.36121 11.1126 7.39871 11.1123L7.68826 11.1101L7.77985 10.8354C7.79162 10.7997 7.84196 10.7997 7.85382 10.8354Z" fill="#F5F5F5"/>
<path d="M8.96911 5.79221L9.0607 6.0669L9.35025 6.0691C9.38775 6.06943 9.40326 6.11724 9.37312 6.13951L9.1402 6.31154L9.22758 6.58759C9.23892 6.6233 9.19819 6.65293 9.16767 6.63109L8.93212 6.46271L8.69658 6.63109C8.66606 6.65288 8.62542 6.6233 8.63667 6.58759L8.72405 6.31154L8.49113 6.13951C8.46099 6.1172 8.4765 6.06943 8.514 6.0691L8.80355 6.0669L8.89514 5.79221C8.90695 5.75668 8.9573 5.75668 8.96911 5.79221Z" fill="#F5F5F5"/>
<path d="M8.96911 7.22914L9.0607 7.50382L9.35025 7.50602C9.38775 7.50635 9.40326 7.55416 9.37312 7.57643L9.1402 7.74846L9.22758 8.0245C9.23892 8.06022 9.19819 8.08984 9.16767 8.068L8.93212 7.89963L8.69658 8.068C8.66606 8.0898 8.62542 8.06027 8.63667 8.0245L8.72405 7.74846L8.49113 7.57643C8.46099 7.55412 8.4765 7.50635 8.514 7.50602L8.80355 7.50382L8.89514 7.22914C8.90695 7.19356 8.9573 7.19356 8.96911 7.22914Z" fill="#F5F5F5"/>
<path d="M8.96911 8.66606L9.0607 8.94074L9.35025 8.94295C9.38775 8.94328 9.40326 8.99109 9.37312 9.01335L9.1402 9.18538L9.22758 9.46143C9.23892 9.49715 9.19819 9.52677 9.16767 9.50493L8.93212 9.33656L8.69658 9.50493C8.66606 9.52673 8.62542 9.49715 8.63667 9.46143L8.72405 9.18538L8.49113 9.01335C8.46099 8.99104 8.4765 8.94328 8.514 8.94295L8.80355 8.94074L8.89514 8.66606C8.90695 8.63048 8.9573 8.63048 8.96911 8.66606Z" fill="#F5F5F5"/>
<path d="M8.96911 10.103L9.0607 10.3777L9.35025 10.3799C9.38775 10.3802 9.40326 10.428 9.37312 10.4503L9.1402 10.6223L9.22758 10.8983C9.23892 10.9341 9.19819 10.9637 9.16767 10.9418L8.93212 10.7735L8.69658 10.9418C8.66606 10.9636 8.62542 10.9341 8.63667 10.8983L8.72405 10.6223L8.49113 10.4503C8.46099 10.428 8.4765 10.3802 8.514 10.3799L8.80355 10.3777L8.89514 10.103C8.90695 10.0674 8.9573 10.0674 8.96911 10.103Z" fill="#F5F5F5"/>
<path d="M10.0845 5.08772L10.1761 5.3624L10.4656 5.36461C10.5031 5.36493 10.5186 5.41275 10.4885 5.43501L10.2556 5.60704L10.3429 5.88309C10.3543 5.9188 10.3135 5.94843 10.283 5.92659L10.0475 5.75821L9.81194 5.92659C9.78142 5.94838 9.74078 5.9188 9.75203 5.88309L9.83941 5.60704L9.60648 5.43501C9.57634 5.4127 9.59186 5.36493 9.62936 5.36461L9.91891 5.3624L10.0105 5.08772C10.0223 5.05214 10.0726 5.05214 10.0845 5.08772Z" fill="#F5F5F5"/>
<path d="M10.0845 6.52463L10.1761 6.79932L10.4656 6.80152C10.5031 6.80185 10.5186 6.84966 10.4885 6.87193L10.2556 7.04396L10.3429 7.32001C10.3543 7.35573 10.3135 7.38535 10.283 7.36351L10.0475 7.19513L9.81194 7.36351C9.78142 7.3853 9.74078 7.35573 9.75203 7.32001L9.83941 7.04396L9.60648 6.87193C9.57634 6.84962 9.59186 6.80185 9.62936 6.80152L9.91891 6.79932L10.0105 6.52463C10.0223 6.4891 10.0726 6.4891 10.0845 6.52463Z" fill="#F5F5F5"/>
<path d="M10.0845 7.96152L10.1761 8.23622L10.4656 8.23842C10.5031 8.23875 10.5186 8.28656 10.4885 8.30883L10.2556 8.48086L10.3429 8.75691C10.3543 8.79263 10.3135 8.82225 10.283 8.80041L10.0475 8.63203L9.81194 8.80041C9.78142 8.82221 9.74078 8.79263 9.75203 8.75691L9.83941 8.48086L9.60648 8.30883C9.57634 8.28651 9.59186 8.23875 9.62936 8.23842L9.91891 8.23622L10.0105 7.96152C10.0223 7.92599 10.0726 7.92599 10.0845 7.96152Z" fill="#F5F5F5"/>
<path d="M10.0845 9.39848L10.1761 9.67317L10.4656 9.67537C10.5031 9.6757 10.5186 9.72351 10.4885 9.74578L10.2556 9.91781L10.3429 10.1939C10.3543 10.2296 10.3135 10.2592 10.283 10.2374L10.0475 10.069L9.81194 10.2374C9.78142 10.2591 9.74078 10.2296 9.75203 10.1939L9.83941 9.91781L9.60648 9.74578C9.57634 9.72346 9.59186 9.6757 9.62936 9.67537L9.91891 9.67317L10.0105 9.39848C10.0223 9.3629 10.0726 9.3629 10.0845 9.39848Z" fill="#F5F5F5"/>
<path d="M10.0845 10.8354L10.1761 11.1101L10.4656 11.1123C10.5031 11.1126 10.5186 11.1604 10.4885 11.1827L10.2556 11.3547L10.3429 11.6308C10.3543 11.6665 10.3135 11.6961 10.283 11.6743L10.0475 11.5059L9.81194 11.6743C9.78142 11.696 9.74078 11.6665 9.75203 11.6308L9.83941 11.3547L9.60648 11.1827C9.57634 11.1604 9.59186 11.1126 9.62936 11.1123L9.91891 11.1101L10.0105 10.8354C10.0223 10.7997 10.0726 10.7997 10.0845 10.8354Z" fill="#F5F5F5"/>
</svg>
