<svg width="60" height="48" viewBox="0 0 60 48" fill="none" xmlns="http://www.w3.org/2000/svg">
    <path d="M26.2124 13.7625C26.2124 14.3417 26.0437 14.825 25.7062 15.2125C25.3687 15.5959 24.8937 15.8542 24.2812 15.9875V16.0375C25.0145 16.1292 25.5645 16.3584 25.9312 16.725C26.2978 17.0875 26.4812 17.5709 26.4812 18.175C26.4812 19.0542 26.1707 19.7334 25.5499 20.2125C24.9291 20.6875 24.0457 20.925 22.8999 20.925C21.8874 20.925 21.0332 20.7605 20.3374 20.4313V19.125C20.7249 19.3167 21.1353 19.4646 21.5687 19.5688C22.002 19.673 22.4187 19.725 22.8187 19.725C23.527 19.725 24.0562 19.5938 24.4062 19.3313C24.7562 19.0688 24.9312 18.6625 24.9312 18.1125C24.9312 17.625 24.7374 17.2667 24.3499 17.0375C23.9624 16.8084 23.3541 16.6938 22.5249 16.6938H21.7312V15.5H22.5374C23.9957 15.5 24.7249 14.9959 24.7249 13.9875C24.7249 13.5959 24.5978 13.2938 24.3437 13.0813C24.0895 12.8688 23.7145 12.7625 23.2187 12.7625C22.8728 12.7625 22.5395 12.8125 22.2187 12.9125C21.8978 13.0084 21.5187 13.198 21.0812 13.4813L20.3624 12.4563C21.1999 11.8396 22.1728 11.5313 23.2812 11.5313C24.202 11.5313 24.9207 11.7292 25.4374 12.125C25.9541 12.5209 26.2124 13.0667 26.2124 13.7625Z" fill="#4F4F4F" />
    <path d="M27.6999 16.9063C27.6999 13.3313 29.1562 11.5438 32.0687 11.5438C32.527 11.5438 32.9145 11.5792 33.2312 11.65V12.875C32.9145 12.7834 32.5478 12.7375 32.1312 12.7375C31.152 12.7375 30.4166 13 29.9249 13.525C29.4332 14.05 29.1666 14.8917 29.1249 16.05H29.1999C29.3957 15.7125 29.6707 15.4521 30.0249 15.2688C30.3791 15.0813 30.7957 14.9875 31.2749 14.9875C32.1041 14.9875 32.7499 15.2417 33.2124 15.75C33.6749 16.2584 33.9062 16.948 33.9062 17.8188C33.9062 18.7771 33.6374 19.5355 33.0999 20.0938C32.5666 20.648 31.8374 20.925 30.9124 20.925C30.2582 20.925 29.6895 20.7688 29.2062 20.4563C28.7228 20.1396 28.3499 19.6813 28.0874 19.0813C27.8291 18.4771 27.6999 17.7521 27.6999 16.9063ZM30.8874 19.7125C31.3916 19.7125 31.7791 19.55 32.0499 19.225C32.3249 18.9 32.4624 18.4355 32.4624 17.8313C32.4624 17.3063 32.3332 16.8938 32.0749 16.5938C31.8207 16.2938 31.4374 16.1438 30.9249 16.1438C30.6082 16.1438 30.3166 16.2125 30.0499 16.35C29.7832 16.4834 29.5728 16.6688 29.4187 16.9063C29.2645 17.1396 29.1874 17.3792 29.1874 17.625C29.1874 18.2125 29.3457 18.7084 29.6624 19.1125C29.9832 19.5125 30.3916 19.7125 30.8874 19.7125Z" fill="#4F4F4F" />
    <path d="M41.1812 16.2313C41.1812 17.8188 40.9249 18.998 40.4124 19.7688C39.9041 20.5396 39.1249 20.925 38.0749 20.925C37.0582 20.925 36.2874 20.5271 35.7624 19.7313C35.2374 18.9355 34.9749 17.7688 34.9749 16.2313C34.9749 14.6188 35.2291 13.4313 35.7374 12.6688C36.2499 11.9021 37.0291 11.5188 38.0749 11.5188C39.0957 11.5188 39.8687 11.9188 40.3937 12.7188C40.9187 13.5188 41.1812 14.6896 41.1812 16.2313ZM36.4624 16.2313C36.4624 17.4771 36.5895 18.3667 36.8437 18.9C37.102 19.4334 37.5124 19.7 38.0749 19.7C38.6374 19.7 39.0478 19.4292 39.3062 18.8875C39.5687 18.3459 39.6999 17.4605 39.6999 16.2313C39.6999 15.0063 39.5687 14.1209 39.3062 13.575C39.0478 13.025 38.6374 12.75 38.0749 12.75C37.5124 12.75 37.102 13.0188 36.8437 13.5563C36.5895 14.0938 36.4624 14.9855 36.4624 16.2313Z" fill="#4F4F4F" />
    <path d="M43.8002 10.0999C44.96 10.0999 45.9002 9.1597 45.9002 7.9999C45.9002 6.8401 44.96 5.8999 43.8002 5.8999C42.6404 5.8999 41.7002 6.8401 41.7002 7.9999C41.7002 9.1597 42.6404 10.0999 43.8002 10.0999Z" stroke="#4F4F4F" />
    <path d="M18.9438 17.2151C19.173 17.0611 19.234 16.7505 19.08 16.5212C18.926 16.292 18.6154 16.231 18.3862 16.385L18.9438 17.2151ZM28.5734 28.491C28.8445 28.5433 29.1068 28.366 29.1591 28.0948C29.2114 27.8237 29.0341 27.5615 28.7629 27.5091L28.5734 28.491ZM18.3862 16.385C17.4529 17.012 16.5311 17.8637 15.9563 18.8633C15.3749 19.8744 15.1372 21.0642 15.6491 22.2924C16.1515 23.4977 17.3375 24.6446 19.3831 25.6834C21.4346 26.7251 24.4052 27.6864 28.5734 28.491L28.7629 27.5091C24.6428 26.7137 21.7723 25.775 19.8359 24.7917C17.8936 23.8055 16.945 22.8024 16.5721 21.9077C16.2088 21.0359 16.3551 20.1757 16.8232 19.3618C17.2978 18.5364 18.0908 17.7881 18.9438 17.2151L18.3862 16.385Z" fill="#4F4F4F" />
    <path d="M42.3243 17.2151C42.095 17.0611 42.0341 16.7505 42.188 16.5212C42.342 16.292 42.6527 16.231 42.8819 16.385L42.3243 17.2151ZM32.6947 28.491C32.4235 28.5433 32.1613 28.366 32.109 28.0948C32.0566 27.8237 32.234 27.5615 32.5051 27.5091L32.6947 28.491ZM42.8819 16.385C43.8152 17.012 44.737 17.8637 45.3118 18.8633C45.8932 19.8744 46.1309 21.0642 45.619 22.2924C45.1166 23.4977 43.9305 24.6446 41.885 25.6834C39.8335 26.7251 36.8629 27.6864 32.6947 28.491L32.5051 27.5091C36.6253 26.7137 39.4958 25.775 41.4322 24.7917C43.3745 23.8055 44.323 22.8024 44.6959 21.9077C45.0593 21.0359 44.913 20.1757 44.4449 19.3618C43.9703 18.5364 43.1772 17.7881 42.3243 17.2151L42.8819 16.385Z" fill="#4F4F4F" />
    <path d="M27.4002 24.5C27.2345 24.2791 26.9211 24.2344 26.7002 24.4C26.4793 24.5657 26.4345 24.8791 26.6002 25.1L27.4002 24.5ZM29.4002 28L29.7002 28.4C29.9211 28.2344 29.9659 27.921 29.8002 27.7L29.4002 28ZM25.9002 30C25.6793 30.1657 25.6345 30.4791 25.8002 30.7C25.9659 30.921 26.2793 30.9657 26.5002 30.8L25.9002 30ZM26.6002 25.1L29.0002 28.3L29.8002 27.7L27.4002 24.5L26.6002 25.1ZM29.1002 27.6L25.9002 30L26.5002 30.8L29.7002 28.4L29.1002 27.6Z" fill="#4F4F4F" />
    <path d="M6.91797 44H5.88135V40.3853H1.93896V44H0.907715V36.1797H1.93896V39.542H5.88135V36.1797H6.91797V44ZM9.67334 44H8.67432V38.1885H9.67334V44ZM9.77002 37.3345H8.91602L7.53027 35.7554H8.72803L9.77002 37.3345ZM12.2515 38.1885L12.2837 38.9189C12.7277 38.3604 13.3078 38.0811 14.0239 38.0811C15.2521 38.0811 15.8716 38.7739 15.8823 40.1597V44H14.8887V40.1543C14.8851 39.7354 14.7884 39.4256 14.5986 39.2251C14.4124 39.0246 14.1206 38.9243 13.7231 38.9243C13.4009 38.9243 13.118 39.0103 12.8745 39.1821C12.631 39.354 12.4412 39.5796 12.3052 39.8589V44H11.3115V38.1885H12.2515ZM18.3745 38.8921C18.8149 38.3514 19.3879 38.0811 20.0933 38.0811C21.3215 38.0811 21.9409 38.7739 21.9517 40.1597V44H20.958V40.1543C20.9544 39.7354 20.8577 39.4256 20.668 39.2251C20.4818 39.0246 20.1899 38.9243 19.7925 38.9243C19.4702 38.9243 19.1873 39.0103 18.9438 39.1821C18.7004 39.354 18.5106 39.5796 18.3745 39.8589V44H17.3809V35.75H18.3745V38.8921ZM27.5107 39.6064H28.2573C28.7264 39.5993 29.0952 39.4757 29.3638 39.2358C29.6323 38.9959 29.7666 38.6719 29.7666 38.2637C29.7666 37.347 29.3101 36.8887 28.397 36.8887C27.9673 36.8887 27.6235 37.0122 27.3657 37.2593C27.1115 37.5028 26.9844 37.8268 26.9844 38.2314H25.9907C25.9907 37.612 26.2163 37.0981 26.6675 36.6899C27.1222 36.2782 27.6987 36.0723 28.397 36.0723C29.1346 36.0723 29.7129 36.2674 30.1318 36.6577C30.5508 37.048 30.7603 37.5905 30.7603 38.2852C30.7603 38.6253 30.6493 38.9548 30.4272 39.2734C30.2088 39.5921 29.9098 39.8302 29.5303 39.9878C29.96 40.1239 30.2912 40.3494 30.5239 40.6646C30.7603 40.9797 30.8784 41.3646 30.8784 41.8193C30.8784 42.5212 30.6493 43.078 30.1909 43.4897C29.7326 43.9015 29.1364 44.1074 28.4023 44.1074C27.6683 44.1074 27.0703 43.9087 26.6084 43.5112C26.1501 43.1138 25.9209 42.5892 25.9209 41.9375H26.9199C26.9199 42.3493 27.0542 42.6787 27.3228 42.9258C27.5913 43.1729 27.9512 43.2964 28.4023 43.2964C28.8822 43.2964 29.2492 43.1711 29.5034 42.9204C29.7576 42.6698 29.8848 42.3099 29.8848 41.8408C29.8848 41.3861 29.7451 41.0369 29.4658 40.7935C29.1865 40.55 28.7837 40.4246 28.2573 40.4175H27.5107V39.6064ZM36.1421 36.1743V37.0176H35.9595C35.186 37.0319 34.5701 37.2611 34.1118 37.7051C33.6535 38.1491 33.3885 38.7739 33.3169 39.5796C33.7287 39.1069 34.2909 38.8706 35.0034 38.8706C35.6838 38.8706 36.2262 39.1105 36.6309 39.5903C37.0391 40.0701 37.2432 40.6896 37.2432 41.4487C37.2432 42.2544 37.0229 42.8989 36.5825 43.3823C36.1457 43.8657 35.5584 44.1074 34.8208 44.1074C34.0724 44.1074 33.4655 43.821 33 43.248C32.5345 42.6715 32.3018 41.9303 32.3018 41.0244V40.6431C32.3018 39.2036 32.6079 38.1043 33.2202 37.3452C33.8361 36.5825 34.751 36.1922 35.9648 36.1743H36.1421ZM34.8369 39.6978C34.4967 39.6978 34.1834 39.7998 33.897 40.0039C33.6105 40.208 33.4118 40.464 33.3008 40.772V41.1372C33.3008 41.7817 33.4458 42.3009 33.7358 42.6948C34.0259 43.0887 34.3875 43.2856 34.8208 43.2856C35.2684 43.2856 35.6193 43.1209 35.8735 42.7915C36.1313 42.4621 36.2603 42.0306 36.2603 41.4971C36.2603 40.96 36.1296 40.5267 35.8682 40.1973C35.6104 39.8643 35.2666 39.6978 34.8369 39.6978ZM43.3232 40.6646C43.3232 41.8283 43.1245 42.693 42.7271 43.2588C42.3296 43.8245 41.7083 44.1074 40.8633 44.1074C40.029 44.1074 39.4113 43.8317 39.0103 43.2803C38.6092 42.7253 38.4015 41.8981 38.3872 40.7988V39.4722C38.3872 38.3228 38.5859 37.4688 38.9834 36.9102C39.3809 36.3516 40.0039 36.0723 40.8525 36.0723C41.694 36.0723 42.3135 36.3426 42.7109 36.8833C43.1084 37.4204 43.3125 38.2511 43.3232 39.3755V40.6646ZM42.3296 39.3057C42.3296 38.4642 42.2114 37.8519 41.9751 37.4688C41.7388 37.082 41.3646 36.8887 40.8525 36.8887C40.3441 36.8887 39.9735 37.0802 39.7407 37.4634C39.508 37.8465 39.388 38.4355 39.3809 39.2305V40.8203C39.3809 41.6654 39.5026 42.2902 39.7461 42.6948C39.9932 43.0959 40.3656 43.2964 40.8633 43.2964C41.3538 43.2964 41.7173 43.1066 41.9536 42.7271C42.1935 42.3475 42.3188 41.7495 42.3296 40.9331V39.3057ZM53.0986 37.3774H52.0889V44H51.1758L51.1274 43.377C50.73 43.8639 50.1768 44.1074 49.4678 44.1074C48.7946 44.1074 48.245 43.8317 47.8188 43.2803C47.3963 42.7288 47.1851 42.0091 47.1851 41.1211V41.0459C47.1851 40.1543 47.3963 39.4382 47.8188 38.8975C48.2414 38.3532 48.7946 38.0811 49.4785 38.0811C50.1589 38.0811 50.6978 38.3138 51.0952 38.7793V37.3774H49.6772V36.5664H51.0952V35.75H52.0889V36.5664H53.0986V37.3774ZM48.1787 41.1587C48.1787 41.8175 48.3148 42.3332 48.5869 42.7056C48.859 43.078 49.235 43.2642 49.7148 43.2642C50.3451 43.2642 50.8052 42.9813 51.0952 42.4155V39.7461C50.798 39.1982 50.3415 38.9243 49.7256 38.9243C49.2386 38.9243 48.859 39.1123 48.5869 39.4883C48.3148 39.8643 48.1787 40.4211 48.1787 41.1587ZM53.7378 41.0405C53.7378 40.4712 53.8488 39.9591 54.0708 39.5044C54.2964 39.0496 54.6079 38.6987 55.0054 38.4517C55.4064 38.2046 55.863 38.0811 56.375 38.0811C57.1663 38.0811 57.8055 38.355 58.2925 38.9028C58.783 39.4507 59.0283 40.1794 59.0283 41.0889V41.1587C59.0283 41.7244 58.9191 42.2329 58.7007 42.6841C58.4858 43.1317 58.1761 43.4808 57.7715 43.7314C57.3704 43.9821 56.9085 44.1074 56.3857 44.1074C55.598 44.1074 54.9588 43.8335 54.4683 43.2856C53.9813 42.7378 53.7378 42.0127 53.7378 41.1104V41.0405ZM54.7368 41.1587C54.7368 41.8032 54.8854 42.3206 55.1826 42.7109C55.4834 43.1012 55.8844 43.2964 56.3857 43.2964C56.8906 43.2964 57.2917 43.0994 57.5889 42.7056C57.8861 42.3081 58.0347 41.7531 58.0347 41.0405C58.0347 40.4032 57.8825 39.8875 57.5781 39.4937C57.2773 39.0962 56.8763 38.8975 56.375 38.8975C55.8844 38.8975 55.4888 39.0926 55.188 39.4829C54.8872 39.8732 54.7368 40.4318 54.7368 41.1587ZM57.9648 37.2217V37.2754H57.1431L56.3374 36.3623L55.5371 37.2754H54.7153V37.2109L56.0366 35.75H56.6382L57.9648 37.2217ZM55.7681 45.3159C55.7681 45.1548 55.8164 45.0187 55.9131 44.9077C56.0133 44.7967 56.1602 44.7412 56.3535 44.7412C56.5469 44.7412 56.6937 44.7967 56.7939 44.9077C56.8942 45.0187 56.9443 45.1548 56.9443 45.3159C56.9443 45.4771 56.8942 45.6113 56.7939 45.7188C56.6937 45.8262 56.5469 45.8799 56.3535 45.8799C56.1602 45.8799 56.0133 45.8262 55.9131 45.7188C55.8164 45.6113 55.7681 45.4771 55.7681 45.3159Z" fill="#333333" />
</svg>